,delta
Hs:NCBIv36;chr20-45565580,0.0
Hs:NCBIv36;chr20-13474079,0.0
Hs:NCBIv36;chr20-51916198,0.0
Hs:NCBIv36;chr20-3822464,0.0
Hs:NCBIv36;chr20-17886331,0.0
Hs:NCBIv36;chr20-16471954,0.0
Hs:NCBIv36;chr20-17895513,0.0
Hs:NCBIv36;chr20-55340748,0.0
Hs:NCBIv36;chr20-48564164,0.0
Hs:NCBIv36;chr20-36203182,0.0
Hs:NCBIv36;chr20-56435532,0.0
Hs:NCBIv36;chr20-19943907,0.0
Hs:NCBIv36;chr20-33760183,0.0
Hs:NCBIv36;chr20-2575442,0.0
Hs:NCBIv36;chr20-7933009,0.0
Hs:NCBIv36;chr20-55367615,0.0
Hs:NCBIv36;chr20-28075609,0.0
Hs:NCBIv36;chr20-19652050,0.0
Hs:NCBIv36;chr20-54384903,0.0
Hs:NCBIv36;chr20-39378781,0.0
Hs:NCBIv36;chr20-59929309,0.0
Hs:NCBIv36;chr20-25744224,0.0
Hs:NCBIv36;chr20-50899442,0.0
Hs:NCBIv36;chr20-20594478,0.0
Hs:NCBIv36;chr20-54384760,0.0
Hs:NCBIv36;chr20-20461307,0.0
Hs:NCBIv36;chr20-37252129,0.0
Hs:NCBIv36;chr20-22861729,0.0
Hs:NCBIv36;chr20-20594294,0.0
Hs:NCBIv36;chr20-56435958,0.0
Hs:NCBIv36;chr20-9101043,0.0
Hs:NCBIv36;chr20-54625187,0.0
Hs:NCBIv36;chr20-445549,0.0
Hs:NCBIv36;chr20-11422240,0.0
Hs:NCBIv36;chr20-42949547,0.0
Hs:NCBIv36;chr20-43599292,0.0
Hs:NCBIv36;chr20-57929498,0.0
Hs:NCBIv36;chr20-14750762,0.0
Hs:NCBIv36;chr20-54580300,0.0
Hs:NCBIv36;chr20-45989740,0.0
Hs:NCBIv36;chr20-57083128,0.0
Hs:NCBIv36;chr20-17899617,0.0
Hs:NCBIv36;chr20-43996419,0.0
Hs:NCBIv36;chr20-56529952,0.0
Hs:NCBIv36;chr20-20652827,0.0
Hs:NCBIv36;chr20-34099569,0.0
Hs:NCBIv36;chr20-58822383,0.0
Hs:NCBIv36;chr20-8868792,0.0
Hs:NCBIv36;chr20-40548019,0.0
Hs:NCBIv36;chr20-51634094,0.0
Hs:NCBIv36;chr20-59929551,0.0
Hs:NCBIv36;chr20-50008163,0.0
Hs:NCBIv36;chr20-8999889,0.0
Hs:NCBIv36;chr20-10788432,0.0
Hs:NCBIv36;chr20-7791482,0.0
Hs:NCBIv36;chr20-59219488,0.0
Hs:NCBIv36;chr20-22351,0.0
Hs:NCBIv36;chr20-46220514,0.0
Hs:NCBIv36;chr20-50967176,0.0
Hs:NCBIv36;chr20-44142738,0.0
Hs:NCBIv36;chr20-52482030,0.0
Hs:NCBIv36;chr20-11696581,0.0
Hs:NCBIv36;chr20-11813689,0.0
Hs:NCBIv36;chr20-25819618,0.0
Hs:NCBIv36;chr20-54971702,0.0
Hs:NCBIv36;chr20-48404272,0.0
Hs:NCBIv36;chr20-51771009,0.0
Hs:NCBIv36;chr20-37910083,0.0
Hs:NCBIv36;chr20-40994864,0.0
Hs:NCBIv36;chr20-58076007,0.0
Hs:NCBIv36;chr20-20113525,0.0
Hs:NCBIv36;chr20-1187671,0.0
Hs:NCBIv36;chr20-15673197,0.0
Hs:NCBIv36;chr20-9406985,0.0
Hs:NCBIv36;chr20-1929851,0.0
Hs:NCBIv36;chr20-5519395,0.0
Hs:NCBIv36;chr20-6444208,0.0
Hs:NCBIv36;chr20-10598077,0.0
Hs:NCBIv36;chr20-16349808,0.0
Hs:NCBIv36;chr20-23011561,0.0
Hs:NCBIv36;chr20-21591528,0.0
Hs:NCBIv36;chr20-19523198,0.0
Hs:NCBIv36;chr20-58169411,0.0
Hs:NCBIv36;chr20-39543925,0.0
Hs:NCBIv36;chr20-20797657,0.0
Hs:NCBIv36;chr20-18566107,0.0
Hs:NCBIv36;chr20-43039516,0.0
Hs:NCBIv36;chr20-11355849,0.014925373134328361
Hs:NCBIv36;chr20-41599811,0.017742117545386082
Hs:NCBIv36;chr20-20438283,0.029850746268656723
Hs:NCBIv36;chr20-59298959,0.03266749067971444
Hs:NCBIv36;chr20-60787869,0.110111100762414
Hs:NCBIv36;chr20-61981732,0.14603795474785794
Hs:NCBIv36;chr20-44475124,0.15574503241101367
Hs:NCBIv36;chr20-50069135,0.13023868466808344
Hs:NCBIv36;chr20-25173764,0.08946496671335967
Hs:NCBIv36;chr20-31578167,0.07944876292868441
Hs:NCBIv36;chr20-59548737,0.0765445721300019
Hs:NCBIv36;chr20-36394336,0.06683300596138156
Hs:NCBIv36;chr20-12510783,
